﻿<?xml version='1.0' encoding='UTF-8'?>
<svg x="0px" y="0px" viewBox="0 0 32 32" version="1.1" xmlns="http://www.w3.org/2000/svg" xmlns:xlink="http://www.w3.org/1999/xlink" xml:space="preserve" id="Prev">
  <path d="M23.1,4.1C23.6,3.8,24,4.1,24,4.6v20.7c0,0.6-0.4,0.8-0.9,0.5L6.4,15.5c-0.5-0.3-0.5-0.8,0-1.1L23.1,4.1z" fill="#1177D7" class="Blue" />
</svg>